components/line_decoder/decoder3to8_tb.vcd
$date
	Fri Aug 23 23:48:22 2024
$end
$version
	Icarus Verilog
$end
$timescale
	1ns
$end
$scope module decoder2to4 $end
$var wire 2 ! A [1:0] $end
$var wire 4 " W [3:0] $end
$var wire 4 # D [3:0] $end
$scope module U0 $end
$var wire 1 $ A $end
$var wire 2 % D [1:0] $end
$upscope $end
$scope module U1 $end
$var wire 1 & A $end
$var wire 2 ' D [1:0] $end
$upscope $end
$upscope $end
$scope module tb $end
$var wire 8 ( D [7:0] $end
$var parameter 32 ) PERIOD $end
$var parameter 32 * RUNTIME $end
$var reg 3 + A [2:0] $end
$var reg 1 , clk $end
$var integer 32 - i [31:0] $end
$scope module dut $end
$var wire 3 . A [2:0] $end
$var wire 6 / W [5:0] $end
$var wire 8 0 D [7:0] $end
$scope module U0 $end
$var wire 1 1 A $end
$var wire 2 2 D [1:0] $end
$upscope $end
$scope module U1 $end
$var wire 1 3 A $end
$var wire 2 4 D [1:0] $end
$upscope $end
$scope module U2 $end
$var wire 1 5 A $end
$var wire 2 6 D [1:0] $end
$upscope $end
$upscope $end
$upscope $end
$enddefinitions $end
$comment Show the parameter values. $end
$dumpall
b11110100001001000000 *
b1010 )
$end
#0
$dumpvars
b1 6
05
b1 4
03
b1 2
01
b10000000 0
b10101 /
b0 .
b0 -
0,
b0 +
b10000000 (
bz '
z&
bz %
z$
bx #
bz "
bz !
$end
#10
1,
#20
b1000000 (
b1000000 0
b100101 /
b10 2
11
0,
b1 +
b1 .
b1 -
#30
1,
#40
b100000 (
b100000 0
b1 2
01
b11001 /
b10 4
13
0,
b10 +
b10 .
b10 -
#50
1,
#60
b10000 (
b10000 0
b101001 /
b10 2
11
0,
b11 +
b11 .
b11 -
#70
1,
#80
b1000 (
b1000 0
b1 2
01
b1 4
03
b10110 /
b10 6
15
0,
b100 +
b100 .
b100 -
#90
1,
#100
b100 (
b100 0
b100110 /
b10 2
11
0,
b101 +
b101 .
b101 -
#110
1,
#120
b10 (
b10 0
b1 2
01
b11010 /
b10 4
13
0,
b110 +
b110 .
b110 -
#130
1,
#140
b1 (
b1 0
b101010 /
b10 2
11
0,
b111 +
b111 .
b111 -
#150
1,
#160
0,
b1000 -
