components/shifter/leftshifter16bit_tb.vcd
$date
	Wed Aug 28 12:37:57 2024
$end
$version
	Icarus Verilog
$end
$timescale
	1ns
$end
$scope module leftshifter16bit $end
$var wire 16 ! A [15:0] $end
$var wire 4 " mag [3:0] $end
$var wire 16 # int3 [15:0] $end
$var wire 16 $ int2 [15:0] $end
$var wire 16 % int1 [15:0] $end
$var wire 16 & Q [15:0] $end
$scope module M0 $end
$var wire 1 ' A $end
$var wire 1 ( B $end
$var wire 1 ) sel $end
$var wire 1 * Q $end
$upscope $end
$scope module M0_0 $end
$var wire 1 + A $end
$var wire 1 , B $end
$var wire 1 - sel $end
$var wire 1 . Q $end
$upscope $end
$scope module M0_0_0 $end
$var wire 1 / A $end
$var wire 1 0 B $end
$var wire 1 1 sel $end
$var wire 1 2 Q $end
$upscope $end
$scope module M0_0_0_0 $end
$var wire 1 3 A $end
$var wire 1 4 B $end
$var wire 1 5 sel $end
$var wire 1 6 Q $end
$upscope $end
$scope module M1 $end
$var wire 1 7 A $end
$var wire 1 8 B $end
$var wire 1 9 sel $end
$var wire 1 : Q $end
$upscope $end
$scope module M10 $end
$var wire 1 ; A $end
$var wire 1 < B $end
$var wire 1 = sel $end
$var wire 1 > Q $end
$upscope $end
$scope module M10_10 $end
$var wire 1 ? A $end
$var wire 1 @ B $end
$var wire 1 A sel $end
$var wire 1 B Q $end
$upscope $end
$scope module M10_10_10 $end
$var wire 1 C A $end
$var wire 1 D B $end
$var wire 1 E sel $end
$var wire 1 F Q $end
$upscope $end
$scope module M10_10_10_10 $end
$var wire 1 G A $end
$var wire 1 H B $end
$var wire 1 I sel $end
$var wire 1 J Q $end
$upscope $end
$scope module M11 $end
$var wire 1 K A $end
$var wire 1 L B $end
$var wire 1 M sel $end
$var wire 1 N Q $end
$upscope $end
$scope module M11_11 $end
$var wire 1 O A $end
$var wire 1 P B $end
$var wire 1 Q sel $end
$var wire 1 R Q $end
$upscope $end
$scope module M11_11_11 $end
$var wire 1 S A $end
$var wire 1 T B $end
$var wire 1 U sel $end
$var wire 1 V Q $end
$upscope $end
$scope module M11_11_11_11 $end
$var wire 1 W A $end
$var wire 1 X B $end
$var wire 1 Y sel $end
$var wire 1 Z Q $end
$upscope $end
$scope module M12 $end
$var wire 1 [ A $end
$var wire 1 \ B $end
$var wire 1 ] sel $end
$var wire 1 ^ Q $end
$upscope $end
$scope module M12_12 $end
$var wire 1 _ A $end
$var wire 1 ` B $end
$var wire 1 a sel $end
$var wire 1 b Q $end
$upscope $end
$scope module M12_12_12 $end
$var wire 1 c A $end
$var wire 1 d B $end
$var wire 1 e sel $end
$var wire 1 f Q $end
$upscope $end
$scope module M12_12_12_12 $end
$var wire 1 g A $end
$var wire 1 h B $end
$var wire 1 i sel $end
$var wire 1 j Q $end
$upscope $end
$scope module M13 $end
$var wire 1 k A $end
$var wire 1 l B $end
$var wire 1 m sel $end
$var wire 1 n Q $end
$upscope $end
$scope module M13_13 $end
$var wire 1 o A $end
$var wire 1 p B $end
$var wire 1 q sel $end
$var wire 1 r Q $end
$upscope $end
$scope module M13_13_13 $end
$var wire 1 s A $end
$var wire 1 t B $end
$var wire 1 u sel $end
$var wire 1 v Q $end
$upscope $end
$scope module M13_13_13_13 $end
$var wire 1 w A $end
$var wire 1 x B $end
$var wire 1 y sel $end
$var wire 1 z Q $end
$upscope $end
$scope module M14 $end
$var wire 1 { A $end
$var wire 1 | B $end
$var wire 1 } sel $end
$var wire 1 ~ Q $end
$upscope $end
$scope module M14_14 $end
$var wire 1 !" A $end
$var wire 1 "" B $end
$var wire 1 #" sel $end
$var wire 1 $" Q $end
$upscope $end
$scope module M14_14_14 $end
$var wire 1 %" A $end
$var wire 1 &" B $end
$var wire 1 '" sel $end
$var wire 1 (" Q $end
$upscope $end
$scope module M14_14_14_14 $end
$var wire 1 )" A $end
$var wire 1 *" B $end
$var wire 1 +" sel $end
$var wire 1 ," Q $end
$upscope $end
$scope module M15 $end
$var wire 1 -" A $end
$var wire 1 ." B $end
$var wire 1 /" sel $end
$var wire 1 0" Q $end
$upscope $end
$scope module M15_15 $end
$var wire 1 1" A $end
$var wire 1 2" B $end
$var wire 1 3" sel $end
$var wire 1 4" Q $end
$upscope $end
$scope module M15_15_15 $end
$var wire 1 5" A $end
$var wire 1 6" B $end
$var wire 1 7" sel $end
$var wire 1 8" Q $end
$upscope $end
$scope module M15_15_15_15 $end
$var wire 1 9" A $end
$var wire 1 :" B $end
$var wire 1 ;" sel $end
$var wire 1 <" Q $end
$upscope $end
$scope module M1_1 $end
$var wire 1 =" A $end
$var wire 1 >" B $end
$var wire 1 ?" sel $end
$var wire 1 @" Q $end
$upscope $end
$scope module M1_1_1 $end
$var wire 1 A" A $end
$var wire 1 B" B $end
$var wire 1 C" sel $end
$var wire 1 D" Q $end
$upscope $end
$scope module M1_1_1_1 $end
$var wire 1 E" A $end
$var wire 1 F" B $end
$var wire 1 G" sel $end
$var wire 1 H" Q $end
$upscope $end
$scope module M2 $end
$var wire 1 I" A $end
$var wire 1 J" B $end
$var wire 1 K" sel $end
$var wire 1 L" Q $end
$upscope $end
$scope module M2_2 $end
$var wire 1 M" A $end
$var wire 1 N" B $end
$var wire 1 O" sel $end
$var wire 1 P" Q $end
$upscope $end
$scope module M2_2_2 $end
$var wire 1 Q" A $end
$var wire 1 R" B $end
$var wire 1 S" sel $end
$var wire 1 T" Q $end
$upscope $end
$scope module M2_2_2_2 $end
$var wire 1 U" A $end
$var wire 1 V" B $end
$var wire 1 W" sel $end
$var wire 1 X" Q $end
$upscope $end
$scope module M3 $end
$var wire 1 Y" A $end
$var wire 1 Z" B $end
$var wire 1 [" sel $end
$var wire 1 \" Q $end
$upscope $end
$scope module M3_3 $end
$var wire 1 ]" A $end
$var wire 1 ^" B $end
$var wire 1 _" sel $end
$var wire 1 `" Q $end
$upscope $end
$scope module M3_3_3 $end
$var wire 1 a" A $end
$var wire 1 b" B $end
$var wire 1 c" sel $end
$var wire 1 d" Q $end
$upscope $end
$scope module M3_3_3_3 $end
$var wire 1 e" A $end
$var wire 1 f" B $end
$var wire 1 g" sel $end
$var wire 1 h" Q $end
$upscope $end
$scope module M4 $end
$var wire 1 i" A $end
$var wire 1 j" B $end
$var wire 1 k" sel $end
$var wire 1 l" Q $end
$upscope $end
$scope module M4_4 $end
$var wire 1 m" A $end
$var wire 1 n" B $end
$var wire 1 o" sel $end
$var wire 1 p" Q $end
$upscope $end
$scope module M4_4_4 $end
$var wire 1 q" A $end
$var wire 1 r" B $end
$var wire 1 s" sel $end
$var wire 1 t" Q $end
$upscope $end
$scope module M4_4_4_4 $end
$var wire 1 u" A $end
$var wire 1 v" B $end
$var wire 1 w" sel $end
$var wire 1 x" Q $end
$upscope $end
$scope module M5 $end
$var wire 1 y" A $end
$var wire 1 z" B $end
$var wire 1 {" sel $end
$var wire 1 |" Q $end
$upscope $end
$scope module M5_5 $end
$var wire 1 }" A $end
$var wire 1 ~" B $end
$var wire 1 !# sel $end
$var wire 1 "# Q $end
$upscope $end
$scope module M5_5_5 $end
$var wire 1 ## A $end
$var wire 1 $# B $end
$var wire 1 %# sel $end
$var wire 1 &# Q $end
$upscope $end
$scope module M5_5_5_5 $end
$var wire 1 '# A $end
$var wire 1 (# B $end
$var wire 1 )# sel $end
$var wire 1 *# Q $end
$upscope $end
$scope module M6 $end
$var wire 1 +# A $end
$var wire 1 ,# B $end
$var wire 1 -# sel $end
$var wire 1 .# Q $end
$upscope $end
$scope module M6_6 $end
$var wire 1 /# A $end
$var wire 1 0# B $end
$var wire 1 1# sel $end
$var wire 1 2# Q $end
$upscope $end
$scope module M6_6_6 $end
$var wire 1 3# A $end
$var wire 1 4# B $end
$var wire 1 5# sel $end
$var wire 1 6# Q $end
$upscope $end
$scope module M6_6_6_6 $end
$var wire 1 7# A $end
$var wire 1 8# B $end
$var wire 1 9# sel $end
$var wire 1 :# Q $end
$upscope $end
$scope module M7 $end
$var wire 1 ;# A $end
$var wire 1 <# B $end
$var wire 1 =# sel $end
$var wire 1 ># Q $end
$upscope $end
$scope module M7_7 $end
$var wire 1 ?# A $end
$var wire 1 @# B $end
$var wire 1 A# sel $end
$var wire 1 B# Q $end
$upscope $end
$scope module M7_7_7 $end
$var wire 1 C# A $end
$var wire 1 D# B $end
$var wire 1 E# sel $end
$var wire 1 F# Q $end
$upscope $end
$scope module M7_7_7_7 $end
$var wire 1 G# A $end
$var wire 1 H# B $end
$var wire 1 I# sel $end
$var wire 1 J# Q $end
$upscope $end
$scope module M8 $end
$var wire 1 K# A $end
$var wire 1 L# B $end
$var wire 1 M# sel $end
$var wire 1 N# Q $end
$upscope $end
$scope module M8_8 $end
$var wire 1 O# A $end
$var wire 1 P# B $end
$var wire 1 Q# sel $end
$var wire 1 R# Q $end
$upscope $end
$scope module M8_8_8 $end
$var wire 1 S# A $end
$var wire 1 T# B $end
$var wire 1 U# sel $end
$var wire 1 V# Q $end
$upscope $end
$scope module M8_8_8_8 $end
$var wire 1 W# A $end
$var wire 1 X# B $end
$var wire 1 Y# sel $end
$var wire 1 Z# Q $end
$upscope $end
$scope module M9 $end
$var wire 1 [# A $end
$var wire 1 \# B $end
$var wire 1 ]# sel $end
$var wire 1 ^# Q $end
$upscope $end
$scope module M9_9 $end
$var wire 1 _# A $end
$var wire 1 `# B $end
$var wire 1 a# sel $end
$var wire 1 b# Q $end
$upscope $end
$scope module M9_9_9 $end
$var wire 1 c# A $end
$var wire 1 d# B $end
$var wire 1 e# sel $end
$var wire 1 f# Q $end
$upscope $end
$scope module M9_9_9_9 $end
$var wire 1 g# A $end
$var wire 1 h# B $end
$var wire 1 i# sel $end
$var wire 1 j# Q $end
$upscope $end
$upscope $end
$scope module multiplexer16bit $end
$var wire 16 k# A [15:0] $end
$var wire 16 l# B [15:0] $end
$var wire 1 m# sel $end
$var wire 16 n# Q [15:0] $end
$upscope $end
$scope module multiplexer2bit $end
$var wire 1 o# A $end
$var wire 1 p# B $end
$var wire 1 q# C $end
$var wire 1 r# D $end
$var wire 2 s# sel [1:0] $end
$var wire 1 t# Q $end
$upscope $end
$scope module tb $end
$var wire 16 u# Q [15:0] $end
$var parameter 32 v# PERIOD $end
$var parameter 32 w# RUNTIME $end
$var reg 16 x# A [15:0] $end
$var reg 1 y# clk $end
$var reg 4 z# mag [3:0] $end
$scope module dut $end
$var wire 16 {# A [15:0] $end
$var wire 16 |# Q [15:0] $end
$var wire 4 }# mag [3:0] $end
$var wire 16 ~# int1 [15:0] $end
$scope module M0 $end
$var wire 1 !$ A $end
$var wire 1 "$ B $end
$var wire 1 #$ sel $end
$var wire 1 $$ Q $end
$upscope $end
$scope module M1 $end
$var wire 1 %$ A $end
$var wire 1 &$ B $end
$var wire 1 '$ sel $end
$var wire 1 ($ Q $end
$upscope $end
$scope module M10 $end
$var wire 1 )$ A $end
$var wire 1 *$ B $end
$var wire 1 +$ sel $end
$var wire 1 ,$ Q $end
$upscope $end
$scope module M11 $end
$var wire 1 -$ A $end
$var wire 1 .$ B $end
$var wire 1 /$ sel $end
$var wire 1 0$ Q $end
$upscope $end
$scope module M12 $end
$var wire 1 1$ A $end
$var wire 1 2$ B $end
$var wire 1 3$ sel $end
$var wire 1 4$ Q $end
$upscope $end
$scope module M13 $end
$var wire 1 5$ A $end
$var wire 1 6$ B $end
$var wire 1 7$ sel $end
$var wire 1 8$ Q $end
$upscope $end
$scope module M14 $end
$var wire 1 9$ A $end
$var wire 1 :$ B $end
$var wire 1 ;$ sel $end
$var wire 1 <$ Q $end
$upscope $end
$scope module M15 $end
$var wire 1 =$ A $end
$var wire 1 >$ B $end
$var wire 1 ?$ sel $end
$var wire 1 @$ Q $end
$upscope $end
$scope module M2 $end
$var wire 1 A$ A $end
$var wire 1 B$ B $end
$var wire 1 C$ sel $end
$var wire 1 D$ Q $end
$upscope $end
$scope module M3 $end
$var wire 1 E$ A $end
$var wire 1 F$ B $end
$var wire 1 G$ sel $end
$var wire 1 H$ Q $end
$upscope $end
$scope module M4 $end
$var wire 1 I$ A $end
$var wire 1 J$ B $end
$var wire 1 K$ sel $end
$var wire 1 L$ Q $end
$upscope $end
$scope module M5 $end
$var wire 1 M$ A $end
$var wire 1 N$ B $end
$var wire 1 O$ sel $end
$var wire 1 P$ Q $end
$upscope $end
$scope module M6 $end
$var wire 1 Q$ A $end
$var wire 1 R$ B $end
$var wire 1 S$ sel $end
$var wire 1 T$ Q $end
$upscope $end
$scope module M7 $end
$var wire 1 U$ A $end
$var wire 1 V$ B $end
$var wire 1 W$ sel $end
$var wire 1 X$ Q $end
$upscope $end
$scope module M8 $end
$var wire 1 Y$ A $end
$var wire 1 Z$ B $end
$var wire 1 [$ sel $end
$var wire 1 \$ Q $end
$upscope $end
$scope module M9 $end
$var wire 1 ]$ A $end
$var wire 1 ^$ B $end
$var wire 1 _$ sel $end
$var wire 1 `$ Q $end
$upscope $end
$upscope $end
$upscope $end
$enddefinitions $end
$comment Show the parameter values. $end
$dumpall
b11110100001001000000 w#
b1010 v#
$end
#0
$dumpvars
x`$
x_$
x^$
x]$
x\$
x[$
xZ$
xY$
xX$
xW$
xV$
xU$
xT$
xS$
xR$
xQ$
xP$
xO$
xN$
xM$
xL$
xK$
xJ$
xI$
xH$
xG$
xF$
xE$
xD$
xC$
xB$
xA$
x@$
x?$
x>$
0=$
x<$
x;$
x:$
x9$
x8$
x7$
x6$
x5$
x4$
x3$
x2$
x1$
x0$
x/$
x.$
x-$
x,$
x+$
x*$
x)$
x($
x'$
x&$
x%$
x$$
x#$
x"$
x!$
bx ~#
bx }#
bz |#
bx {#
bx z#
0y#
bx x#
bz u#
xt#
bz s#
zr#
zq#
zp#
zo#
bx n#
zm#
bz l#
bz k#
xj#
zi#
xh#
xg#
xf#
ze#
xd#
xc#
xb#
za#
x`#
x_#
x^#
z]#
z\#
z[#
xZ#
zY#
xX#
xW#
xV#
zU#
xT#
xS#
xR#
zQ#
xP#
xO#
xN#
zM#
zL#
zK#
xJ#
zI#
xH#
0G#
xF#
zE#
xD#
xC#
xB#
zA#
x@#
x?#
x>#
z=#
z<#
z;#
x:#
z9#
x8#
07#
x6#
z5#
x4#
x3#
x2#
z1#
x0#
x/#
x.#
z-#
z,#
z+#
x*#
z)#
x(#
0'#
x&#
z%#
x$#
x##
x"#
z!#
x~"
x}"
x|"
z{"
zz"
zy"
xx"
zw"
xv"
0u"
xt"
zs"
xr"
xq"
xp"
zo"
xn"
xm"
xl"
zk"
zj"
zi"
xh"
zg"
xf"
0e"
xd"
zc"
xb"
0a"
x`"
z_"
x^"
x]"
x\"
z["
zZ"
zY"
xX"
zW"
xV"
0U"
xT"
zS"
xR"
0Q"
xP"
zO"
xN"
xM"
xL"
zK"
zJ"
zI"
xH"
zG"
xF"
0E"
xD"
zC"
xB"
0A"
x@"
z?"
x>"
0="
x<"
z;"
x:"
x9"
x8"
z7"
x6"
x5"
x4"
z3"
x2"
x1"
x0"
z/"
z."
z-"
x,"
z+"
x*"
x)"
x("
z'"
x&"
x%"
x$"
z#"
x""
x!"
x~
z}
z|
z{
xz
zy
xx
xw
xv
zu
xt
xs
xr
zq
xp
xo
xn
zm
zl
zk
xj
zi
xh
xg
xf
ze
xd
xc
xb
za
x`
x_
x^
z]
z\
z[
xZ
zY
xX
xW
xV
zU
xT
xS
xR
zQ
xP
xO
xN
zM
zL
zK
xJ
zI
xH
xG
xF
zE
xD
xC
xB
zA
x@
x?
x>
z=
z<
z;
x:
z9
z8
z7
x6
z5
x4
03
x2
z1
x0
0/
x.
z-
x,
0+
x*
z)
z(
0'
bx &
bx %
bx $
bx #
bz "
bz !
$end
#10
1y#
#20
0@$
0<$
08$
04$
00$
0,$
0`$
0\$
0X$
0T$
0P$
0L$
0H$
0D$
0($
b1 ~#
1$$
0?$
0;$
07$
03$
0/$
0+$
0_$
0[$
0W$
0S$
0O$
0K$
0G$
0C$
0'$
0#$
0>$
09$
0:$
05$
06$
01$
02$
0-$
0.$
0)$
0*$
0]$
0^$
0Y$
0Z$
0U$
0V$
0Q$
0R$
0M$
0N$
0I$
0J$
0E$
0F$
0A$
0B$
0%$
0&$
0!$
1"$
0y#
b0 z#
b0 }#
b1 x#
b1 {#
#30
1y#
#40
b0 ~#
0$$
1?$
1;$
17$
13$
1/$
1+$
1_$
1[$
1W$
1S$
1O$
1K$
1G$
1C$
1'$
1#$
0y#
b1 z#
b1 }#
#50
1y#
#60
0@$
0<$
08$
04$
00$
0,$
0`$
0\$
0X$
0T$
0P$
0L$
0H$
0D$
0($
b1 ~#
1$$
0?$
0;$
07$
03$
0/$
0+$
0_$
0[$
0W$
0S$
0O$
0K$
0G$
0C$
0'$
0#$
0y#
b10 z#
b10 }#
#70
1y#
#80
b0 ~#
0$$
1?$
1;$
17$
13$
1/$
1+$
1_$
1[$
1W$
1S$
1O$
1K$
1G$
1C$
1'$
1#$
0y#
b11 z#
b11 }#
#90
1y#
#100
0@$
0<$
08$
04$
00$
0,$
0`$
0\$
0X$
0T$
0P$
0L$
0H$
0D$
0($
b1 ~#
1$$
0?$
0;$
07$
03$
0/$
0+$
0_$
0[$
0W$
0S$
0O$
0K$
0G$
0C$
0'$
0#$
0y#
b100 z#
b100 }#
#110
1y#
#120
b0 ~#
0$$
1?$
1;$
17$
13$
1/$
1+$
1_$
1[$
1W$
1S$
1O$
1K$
1G$
1C$
1'$
1#$
0y#
b101 z#
b101 }#
#130
1y#
#140
0@$
0<$
08$
04$
00$
0,$
0`$
0\$
0X$
0T$
0P$
0L$
0H$
0D$
0($
b1 ~#
1$$
0?$
0;$
07$
03$
0/$
0+$
0_$
0[$
0W$
0S$
0O$
0K$
0G$
0C$
0'$
0#$
0y#
b110 z#
b110 }#
#150
1y#
#160
b0 ~#
0$$
1?$
1;$
17$
13$
1/$
1+$
1_$
1[$
1W$
1S$
1O$
1K$
1G$
1C$
1'$
1#$
0y#
b111 z#
b111 }#
#170
1y#
#180
0@$
0<$
08$
04$
00$
0,$
0`$
0\$
0X$
0T$
0P$
0L$
0H$
0D$
0($
b1 ~#
1$$
0?$
0;$
07$
03$
0/$
0+$
0_$
0[$
0W$
0S$
0O$
0K$
0G$
0C$
0'$
0#$
0y#
b1000 z#
b1000 }#
#190
1y#
#200
b0 ~#
0$$
1?$
1;$
17$
13$
1/$
1+$
1_$
1[$
1W$
1S$
1O$
1K$
1G$
1C$
1'$
1#$
0y#
b1001 z#
b1001 }#
#210
1y#
#220
0@$
0<$
08$
04$
00$
0,$
0`$
0\$
0X$
0T$
0P$
0L$
0H$
0D$
0($
b1 ~#
1$$
0?$
0;$
07$
03$
0/$
0+$
0_$
0[$
0W$
0S$
0O$
0K$
0G$
0C$
0'$
0#$
0y#
b1010 z#
b1010 }#
#230
1y#
#240
b0 ~#
0$$
1?$
1;$
17$
13$
1/$
1+$
1_$
1[$
1W$
1S$
1O$
1K$
1G$
1C$
1'$
1#$
0y#
b1011 z#
b1011 }#
#250
1y#
#260
0@$
0<$
08$
04$
00$
0,$
0`$
0\$
0X$
0T$
0P$
0L$
0H$
0D$
0($
b1 ~#
1$$
0?$
0;$
07$
03$
0/$
0+$
0_$
0[$
0W$
0S$
0O$
0K$
0G$
0C$
0'$
0#$
0y#
b1100 z#
b1100 }#
#270
1y#
#280
b0 ~#
0$$
1?$
1;$
17$
13$
1/$
1+$
1_$
1[$
1W$
1S$
1O$
1K$
1G$
1C$
1'$
1#$
0y#
b1101 z#
b1101 }#
#290
1y#
#300
0@$
0<$
08$
04$
00$
0,$
0`$
0\$
0X$
0T$
0P$
0L$
0H$
0D$
0($
b1 ~#
1$$
0?$
0;$
07$
03$
0/$
0+$
0_$
0[$
0W$
0S$
0O$
0K$
0G$
0C$
0'$
0#$
0y#
b1110 z#
b1110 }#
#310
1y#
#320
b0 ~#
0$$
1?$
1;$
17$
13$
1/$
1+$
1_$
1[$
1W$
1S$
1O$
1K$
1G$
1C$
1'$
1#$
0y#
b1111 z#
b1111 }#
#330
1y#
#340
10$
1X$
b100010001000 ~#
1H$
12$
1-$
1Z$
1U$
1J$
1E$
0y#
b1000100010001 x#
b1000100010001 {#
#350
1y#
#360
00$
b10000000 ~#
0H$
02$
0-$
0J$
0E$
0y#
b101 z#
b101 }#
b100000001 x#
b100000001 {#
